<?xml version="1.0" encoding="UTF-8" standalone="no"?>
<svg
   xmlns:dc="http://purl.org/dc/elements/1.1/"
   xmlns:cc="http://creativecommons.org/ns#"
   xmlns:rdf="http://www.w3.org/1999/02/22-rdf-syntax-ns#"
   xmlns:svg="http://www.w3.org/2000/svg"
   xmlns="http://www.w3.org/2000/svg"
   xml:space="preserve"
   style="enable-background:new 0 0 100.9 100.9;"
   viewBox="0 0 100.9 100.9"
   width="250px" height="250px" 
   y="0px"
   x="0px"
   id="Layer_1"
   version="1.1"><metadata
   id="metadata19"><rdf:RDF><cc:Work
       rdf:about=""><dc:format>image/svg+xml</dc:format><dc:type
         rdf:resource="http://purl.org/dc/dcmitype/StillImage" /><dc:title></dc:title></cc:Work></rdf:RDF></metadata><defs
   id="defs17" />
<style
   id="style2"
   type="text/css">
	.st0{fill:#FFFFFF;}
</style>
<g
   id="Background">
</g>
<g
   id="Content">
</g>
<g
   id="Circles">
</g>
<g
   id="Lines_Infographic">
</g>
<g
   id="g12">
	<path
   id="path8"
   d="M48.8,68c0.4,0.4,0.9,0.8,0.9,0.8l0.8,1.2l0.8-1.1c0.1-0.1,0.5-0.5,1-0.9c3.6-3.1,14.5-12.6,14.5-21.3   c0-4.4-1.7-8.5-4.7-11.5s-7.2-4.7-11.5-4.7c-4.4,0-8.5,1.7-11.5,4.7s-4.7,7.2-4.7,11.5C34.2,55.4,45.2,64.9,48.8,68z M40.4,36.6   c2.7-2.7,6.3-4.2,10.1-4.2s7.4,1.5,10.1,4.2s4.2,6.3,4.2,10.1c0,7.8-10.4,16.8-13.8,19.7c-0.2,0.1-0.3,0.3-0.4,0.4   c-0.1-0.1-0.3-0.2-0.4-0.4c-3.4-3-13.8-12-13.8-19.7C36.2,42.9,37.7,39.3,40.4,36.6z"
   class="st0" />
	<path
   id="path10"
   d="M50.5,53.4c3.4,0,6.1-2.8,6.1-6.1s-2.8-6.1-6.1-6.1s-6.1,2.8-6.1,6.1S47.2,53.4,50.5,53.4z M50.5,43.2   c2.3,0,4.1,1.9,4.1,4.1s-1.9,4.1-4.1,4.1s-4.1-1.9-4.1-4.1S48.3,43.2,50.5,43.2z"
   class="st0" />
</g>
</svg>
