<?xml version="1.0" encoding="utf-8"?>
<!-- Generator: Adobe Illustrator 24.0.3, SVG Export Plug-In . SVG Version: 6.00 Build 0)  -->
<svg version="1.1" id="Layer_1" xmlns="http://www.w3.org/2000/svg" xmlns:xlink="http://www.w3.org/1999/xlink" x="0px" y="0px"
 width="250px" height="250px" 
	 viewBox="0 0 100.9 100.9" style="enable-background:new 0 0 100.9 100.9;" xml:space="preserve">
<style type="text/css">
	.st0{fill:#FFFFFF;}
</style>
<g id="Background">
</g>
<g id="Content">
</g>
<g id="Circles">
</g>
<g id="Lines_Infographic">
</g>
<g id="Icons">
	<path class="st0" d="M43.9,32.7L26.2,50.4l17.7,17.7v-9.7h20.3v-16H43.9V32.7z M62.2,44.5v12H41.9v6.9L29,50.5l12.9-12.9v6.9H62.2z
		"/>
</g>
</svg>
