<?xml version="1.0" encoding="utf-8"?>
<!-- Generator: Adobe Illustrator 24.0.3, SVG Export Plug-In . SVG Version: 6.00 Build 0)  -->
<svg version="1.1" id="Layer_1" xmlns="http://www.w3.org/2000/svg" xmlns:xlink="http://www.w3.org/1999/xlink" x="0px" y="0px"
 width="250px" height="250px" 
	 viewBox="0 0 100.9 100.9" style="enable-background:new 0 0 100.9 100.9;" xml:space="preserve">
<style type="text/css">
	.st0{fill:#FFFFFF;}
</style>
<g id="Background">
</g>
<g id="Content">
</g>
<g id="Circles">
</g>
<g id="Lines_Infographic">
</g>
<g id="Icons">
	<path class="st0" d="M64.7,35.5l-2.8-6.4l-12.7,7.6l0,0L35.5,45l-0.3,0.2l-6.9,17.5l0,0l0,0v0.1l0,0v0.9c0,4.5,3.6,8.1,8.1,8.1
		s8.1-3.6,8.1-8.1v-0.9l0,0l0,0l0,0l0,0l-7.2-16.4l22.1-13.3l-5.7,14.3h-0.1v1c0,4.5,3.7,8.2,8.2,8.2s8.2-3.7,8.2-8.2v-1h-0.2
		L64.7,35.5z M36.4,69.8c-3,0-5.6-2.2-6-5.1h12.1C42,67.5,39.4,69.8,36.4,69.8z M30.4,62.6L36,48.4l6.3,14.2H30.4z M61.5,33.1
		l2.1,4.8l0,0l4.1,9.3H55.9L61.5,33.1z M61.8,54.5c-0.4,0-0.8,0-1.1-0.1c-2.5-0.5-4.5-2.5-4.9-5h12.1c-0.4,2.5-2.4,4.6-4.9,5
		C62.6,54.4,62.2,54.5,61.8,54.5z"/>
</g>
</svg>
