<?xml version="1.0" encoding="utf-8"?>
<!-- Generator: Adobe Illustrator 24.0.3, SVG Export Plug-In . SVG Version: 6.00 Build 0)  -->
<svg version="1.1" id="Layer_1" xmlns="http://www.w3.org/2000/svg" xmlns:xlink="http://www.w3.org/1999/xlink" x="0px" y="0px"
 width="250px" height="250px" 
	 viewBox="0 0 100.9 100.9" style="enable-background:new 0 0 100.9 100.9;" xml:space="preserve">
<style type="text/css">
	.st0{fill:#FFFFFF;}
</style>
<g id="Background">
</g>
<g id="Content">
</g>
<g id="Circles">
</g>
<g id="Lines_Infographic">
</g>
<g>
	<path class="st0" d="M63.9,38.3l2.6-2.6l-1.4-1.4l-2.6,2.6c-3-2.6-6.8-4.3-11-4.6v-3.7h-2v3.7c-4.2,0.2-8,1.9-11,4.6l-2.6-2.6
		l-1.4,1.4l2.6,2.6c-2.6,3-4.3,6.8-4.6,11h-3.7v2h3.7c0.2,4.2,1.9,8,4.6,11l-2.6,2.6l1.4,1.4l2.6-2.6c3,2.6,6.8,4.3,11,4.6V72h2
		v-3.7c4.2-0.2,8-1.9,11-4.6l2.6,2.6l1.4-1.4l-2.6-2.6c2.6-3,4.3-6.8,4.6-11h3.7v-2h-3.7C68.2,45.1,66.5,41.3,63.9,38.3z M50.5,66.4
		c-8.8,0-16-7.2-16-16s7.2-16,16-16s16,7.2,16,16S59.3,66.4,50.5,66.4z"/>
	<path class="st0" d="M50.5,41.3c-5,0-9,4-9,9s4,9,9,9s9-4,9-9S55.4,41.3,50.5,41.3z M50.5,57.3c-3.9,0-7-3.1-7-7s3.1-7,7-7
		s7,3.1,7,7S54.3,57.3,50.5,57.3z"/>
</g>
</svg>
